[{
  "name": "Example User",
  "email": "example@example.com",
  "commits": 117,
  "additions": 0,
  "deletions": 0
}, {
  "name": "Sample User",
  "email": "sample@example.com",
  "commits": 33,
  "additions": 0,
  "deletions": 0
}]
