{
  "id": 2,
  "created_at": "2020-08-17T19:09:19.580Z",
  "commit_message_regex": "[a-zA-Z]",
  "commit_message_negative_regex": "[x+]",
  "branch_name_regex": "[a-z]",
  "deny_delete_tag": true,
  "member_check": true,
  "prevent_secrets": true,
  "author_email_regex": "^[A-Za-z0-9.]+@gitlab.com$",
  "file_name_regex": "(exe)$",
  "max_file_size": 100
}
